(.../pcb-gcode-3_6_0_4/pcb-gcode.ulp)
(Copyright 2005 - 2012 by John Johnson)
(See readme.txt for licensing terms.)
(This file generated from the board:)
(.../tiny13_hw/tiny13_snowfall_hw/board.brd)
(Current profile is .../pcb-gcode-3_6_0_4/profiles/emc.pp  )
(This file generated 01-11-2019 11:54)
(Settings from pcb-machine.h)
(  Tool Size)
(0.0070 )
(Z Axis Settings)
(  High     Up        Down     Drill)
(0.5000 	0.1000 	-0.0070 	-0.0320 )
(spindle on time = 3.0000)
(milling depth = -0.0100)
(text depth = -0.0050)
(tool change at 0.5000 0.6000 1.0000 )
(feed rate xy = F20.00 )
(feed rate z  = F10.00 )
(Settings from pcb-defaults.h)
(isolate min = 0.0010)
(isolate max = 0.0200)
(isolate step = 0.0050)
(Generated bottom outlines, bottom drill, )
(Unit of measure: inch)
( Tool|       Size       |  Min Sub |  Max Sub |   Count )
( T01 | 0.813mm 0.0320in | 0.0000in | 0.0000in |       0 )
( T02 | 1.000mm 0.0394in | 0.0000in | 0.0000in |       0 )
(Inch Mode)
G20
(Absolute Coordinates)
G90
M05
G00 Z1.0000 
G00 X0.5000 Y0.6000 
M06 T01 (0.0320 )
G01 Z0.0000 F10.00 
M06 T01 (0.0320 )
G00 Z0.1000 
M03
G04 P3.000000
G82 X-1.2992 Y0.8555 Z-0.0320 F10.00 R0.1000 P1.000000
G82 X-1.2992 Y0.9555 
G82 X-1.5354 Y0.8555 
G82 X-1.5354 Y0.9555 
G82 X-0.1665 Y0.9154 
G82 X-1.7717 Y0.8555 
G82 X-1.7717 Y0.9555 
G82 X-2.0079 Y0.8555 
G82 X-2.0079 Y0.9555 
G82 X-2.2441 Y0.8555 
G82 X-2.2441 Y0.9555 
G82 X-2.4803 Y0.8555 
G82 X-2.4803 Y0.9555 
G82 X-0.2665 Y0.9154 
G82 X-2.7165 Y0.8555 
G82 X-2.7165 Y0.9555 
G82 X-2.9724 Y0.8555 
G82 X-2.9724 Y0.9555 
G82 X-3.2087 Y0.8555 
G82 X-3.2087 Y0.9555 
G82 X-3.4449 Y0.8555 
G82 X-3.4449 Y0.9555 
G82 X-3.6811 Y0.8555 
G82 X-3.6811 Y0.9555 
G82 X-3.9173 Y0.8555 
G82 X-3.9173 Y0.9555 
M05
G00 Z1.0000 
M06 T02 (0.0394 )
G01 Z0.0000 F10.00 
M06 T02 (0.0394 )
G00 Z0.1000 
M03
G04 P3.000000
G82 X-0.3740 Y0.9146 Z-0.0320 F10.00 R0.1000 P1.000000
G82 X-0.3740 Y1.0146 
T01 
G00 Z0.5000 
M05
M02
